C:\Users\user1\JavaAutomatization\Lab_4\src\main\java\DiaryView.java
C:\Users\user1\JavaAutomatization\Lab_4\src\main\java\FileWork.java
C:\Users\user1\JavaAutomatization\Lab_4\src\main\java\Main.java
C:\Users\user1\JavaAutomatization\Lab_4\src\main\java\DiaryService.java
